<?xml version="1.0" encoding="UTF-8"?>
<CustomTab xmlns="http://soap.sforce.com/2006/04/metadata">
    <frameHeight>600</frameHeight>
    <hasSidebar>true</hasSidebar>
    <label>Downloads</label>
    <mobileReady>false</mobileReady>
    <motif>Custom48: Trophy</motif>
    <url>https://downloads.skyboxsecurity.com</url>
    <urlEncodingKey>UTF-8</urlEncodingKey>
</CustomTab>
