<?xml version="1.0" encoding="UTF-8"?>
<CustomTab xmlns="http://soap.sforce.com/2006/04/metadata">
    <label>Boards - zaapit</label>
    <mobileReady>false</mobileReady>
    <motif>Custom52: Balls</motif>
    <page>zaapit__zaapit_tb_GeneralWL13</page>
</CustomTab>
